{
    "select": [
        {
            "source": {"column": {"name": "letter", "table": "t1"}},
            "as": "l1"
        },
        {
            "source": {"column": {"name": "number", "table": "t1"}},
            "as": "n1"
        },
        {
            "source": {"column": {"name": "letter", "table": "t2"}},
            "as": "l2"
        },
        {
            "source": {"column": {"name": "number", "table": "t2"}},
            "as": "n2"
        }
    ],
    "from": [
        {
            "source": {"file": "simple"},
            "as": "t1"
        },
        {
            "source": {"file": "simple"},
            "as": "t2"
        }
    ],
    "where": []
}
